4 Data wrangling: beyond basics | Tidyverse: Data wrangling & visualization
…
    # Pivot the data to make it wider, with one row per species and the columns representing the mean bill length, depth, and mass for that species.
    penguins_wider <- penguins %>% group_by(species) %>% summarize(mean_bill_length_mm = mean(bill_length_mm), mean_bill_depth_mm = mean(bill_depth_mm), mean_body_mass_g = mean(body_mass_g))
    penguins_wider <- pivot_wider(penguins_wider, names_from = "species", values_from = c("mean_bill_length_mm", "mean_bill_depth_mm", "mean_body_mass_g"))

4.4 Working with text

separate:

paste:

# Load the Palmer Penguins dataset (with additional missing values)
penguins_raw

## # A tibble: 344 × 17
##    studyName Sample Num…¹ Species Region Island Stage Indiv…² Clutc…³ `Date Egg`
##    <chr>            <dbl> <chr>   <chr>  <chr>  <chr> <chr>   <chr>   <date>    
##  1 PAL0708              1 Adelie… Anvers Torge… Adul… N1A1    Yes     2007-11-11
##  2 PAL0708              2 Adelie… Anvers Torge… Adul… N1A2    Yes     2007-11-11
##  3 PAL0708              3 Adelie… Anvers Torge… Adul… N2A1    Yes     2007-11-16
##  4 PAL0708              4 Adelie… Anvers Torge… Adul… N2A2    Yes     2007-11-16
##  5 PAL0708              5 Adelie… Anvers Torge… Adul… N3A1    Yes     2007-11-16
##  6 PAL0708              6 Adelie… Anvers Torge… Adul… N3A2    Yes     2007-11-16
##  7 PAL0708              7 Adelie… Anvers Torge… Adul… N4A1    No      2007-11-15
##  8 PAL0708              8 Adelie… Anvers Torge… Adul… N4A2    No      2007-11-15
##  9 PAL0708              9 Adelie… Anvers Torge… Adul… N5A1    Yes     2007-11-09
## 10 PAL0708             10 Adelie… Anvers Torge… Adul… N5A2    Yes     2007-11-09
## # … with 334 more rows, 8 more variables: `Culmen Length (mm)` <dbl>,
## #   `Culmen Depth (mm)` <dbl>, `Flipper Length (mm)` <dbl>,
## #   `Body Mass (g)` <dbl>, Sex <chr>, `Delta 15 N (o/oo)` <dbl>,
## #   `Delta 13 C (o/oo)` <dbl>, Comments <chr>, and abbreviated variable names
## #   ¹​`Sample Number`, ²​`Individual ID`, ³​`Clutch Completion`
