3 Data wrangling basics | Tidyverse: Data wrangling & visualization
…
3.4 Creating new variables

3.4.1 New columns

We may often want to make a new column with some updated or transformed value. We can use the mutate function for this, in which you can assign the new column name and its value. The idea is generally mutate(data, new_column_name = value). For example, if we wanted to calculate a new value, the ratio of bill length to bill depth, we could do the following

# Mutate to create a new column; use penguins_piped so our output is
# easier to view
mutate(penguins_piped, bill_ratio = bill_length_mm / bill_depth_mm) 

## # A tibble: 146 × 5
##    species sex    bill_length_mm bill_depth_mm bill_ratio
##    <fct>   <fct>           <dbl>         <dbl>      <dbl>
##  1 Adelie  male             39.1          18.7       2.09
##  2 Adelie  female           39.5          17.4       2.27
##  3 Adelie  female           40.3          18         2.24
##  4 Adelie  female           36.7          19.3       1.90
##  5 Adelie  male             39.3          20.6       1.91
##  6 Adelie  female           38.9          17.8       2.19
##  7 Adelie  male             39.2          19.6       2   
##  8 Adelie  female           41.1          17.6       2.34
##  9 Adelie  male             38.6          21.2       1.82
## 10 Adelie  male             34.6          21.1       1.64
## # ℹ 136 more rows
…
